{
	"info": {
		"_postman_id": "cf0f7ea5-b7bb-4350-811c-d82f762c0a06",
		"name": "Sitemate",
		"schema": "https://schema.getpostman.com/json/collection/v2.1.0/collection.json",
		"_exporter_id": "13454311"
	},
	"item": [
		{
			"name": "Read",
			"request": {
				"method": "GET",
				"header": [
					{
						"key": "Authorization",
						"value": "{{auth_access}}",
						"type": "text"
					}
				],
				"url": {
					"raw": "https://localhost:7152/api/v1/sitemate",
					"protocol": "https",
					"host": [
						"localhost"
					],
					"port": "7152",
					"path": [
						"api",
						"v1",
						"sitemate"
					]
				}
			},
			"response": []
		},
		{
			"name": "Create",
			"request": {
				"method": "POST",
				"header": [
					{
						"key": "Authorization",
						"value": "{{auth_access}}",
						"type": "text"
					}
				],
				"body": {
					"mode": "raw",
					"raw": "{\n    \"Name\": \"Will\",\n    \"Age\": \"27\"\n}",
					"options": {
						"raw": {
							"language": "json"
						}
					}
				},
				"url": {
					"raw": "https://localhost:7152/api/v1/sitemate",
					"protocol": "https",
					"host": [
						"localhost"
					],
					"port": "7152",
					"path": [
						"api",
						"v1",
						"sitemate"
					]
				}
			},
			"response": []
		},
		{
			"name": "Update",
			"request": {
				"method": "PUT",
				"header": [
					{
						"key": "Authorization",
						"value": "{{auth_access}}",
						"type": "text"
					}
				],
				"body": {
					"mode": "raw",
					"raw": "{\n    \"Name\": \"Will\",\n    \"Age\": \"27\"\n}",
					"options": {
						"raw": {
							"language": "json"
						}
					}
				},
				"url": {
					"raw": "https://localhost:7152/api/v1/sitemate",
					"protocol": "https",
					"host": [
						"localhost"
					],
					"port": "7152",
					"path": [
						"api",
						"v1",
						"sitemate"
					]
				}
			},
			"response": []
		},
		{
			"name": "Delete",
			"request": {
				"method": "DELETE",
				"header": [
					{
						"key": "Authorization",
						"value": "{{auth_access}}",
						"type": "text"
					}
				],
				"url": {
					"raw": "https://localhost:7152/api/v1/sitemate/10",
					"protocol": "https",
					"host": [
						"localhost"
					],
					"port": "7152",
					"path": [
						"api",
						"v1",
						"sitemate",
						"10"
					]
				}
			},
			"response": []
		}
	],
	"event": [
		{
			"listen": "prerequest",
			"script": {
				"type": "text/javascript",
				"exec": [
					"pm.environment.set(\"auth_access\", \"Basic V0F5bnNsZXk6UzNjVVJFUGFzc1dPUkQ=\");"
				]
			}
		},
		{
			"listen": "test",
			"script": {
				"type": "text/javascript",
				"exec": [
					""
				]
			}
		}
	]
}